%YAML 1.1
%TAG !u! tag:unity3d.com,2011:
--- !u!1045 &1
EditorBuildSettings:
  m_ObjectHideFlags: 0
  serializedVersion: 2
  m_Scenes:
  - enabled: 1
    path: Assets/_Scenes/MainMenu.unity
    guid: ab74df720fbd23d43865ec95b349a88c
  - enabled: 1
    path: Assets/_Scenes/Game.unity
    guid: 812e956de62fbc04a9b02bf6802514aa
  m_configObjects: {}
